%!PS-Adobe-3.0 EPSF-3.0 
%%BoundingBox: 0 0 400 307
%%Pages: 0
%%Creator: LibreOffice 4.1
%%Title: none
%%CreationDate: none
%%LanguageLevel: 2
%%EndComments
%%BeginProlog
%%BeginResource: procset SDRes-Prolog 1.0 0
/b4_inc_state save def
/dict_count countdictstack def
/op_count count 1 sub def
userdict begin
0 setgray 0 setlinecap 1 setlinewidth 0 setlinejoin 10 setmiterlimit[] 0 setdash newpath
/languagelevel where {pop languagelevel 1 ne {false setstrokeadjust false setoverprint} if} if
/bdef {bind def} bind def
/c {setgray} bdef
/l {neg lineto} bdef
/rl {neg rlineto} bdef
/lc {setlinecap} bdef
/lj {setlinejoin} bdef
/lw {setlinewidth} bdef
/ml {setmiterlimit} bdef
/ld {setdash} bdef
/m {neg moveto} bdef
/ct {6 2 roll neg 6 2 roll neg 6 2 roll neg curveto} bdef
/r {rotate} bdef
/t {neg translate} bdef
/s {scale} bdef
/sw {show} bdef
/gs {gsave} bdef
/gr {grestore} bdef
/f {findfont dup length dict begin
{1 index /FID ne {def} {pop pop} ifelse} forall /Encoding ISOLatin1Encoding def
currentdict end /NFont exch definefont pop /NFont findfont} bdef
/p {closepath} bdef
/sf {scalefont setfont} bdef
/ef {eofill}bdef
/pc {closepath stroke}bdef
/ps {stroke}bdef
/pum {matrix currentmatrix}bdef
/pom {setmatrix}bdef
/bs {/aString exch def /nXOfs exch def /nWidth exch def currentpoint nXOfs 0 rmoveto pum nWidth aString stringwidth pop div 1 scale aString show pom moveto} bdef
%%EndResource
%%EndProlog
%%BeginSetup
%%EndSetup
%%Page: 1 1
%%BeginPageSetup
%%EndPageSetup
pum
0.02832 0.02837 s 
0 -10820 t
/tm matrix currentmatrix def
tm setmatrix
-3413 -2398 t 
1 1 s 
0.996 c 6522 3284 m  7781 3284 8744 5071 8744 7410 ct 8744 9750 7781 11537 6522 11537 ct 
5262 11537 4300 9750 4300 7410 ct 4300 5071 5262 3284 6522 3284 ct p ef
50.99167 lw 1 lj 0.000 c 6522 3284 m  7781 3284 8744 5071 8744 7410 ct 8744 9750 7781 11537 6522 11537 ct 
5262 11537 4300 9750 4300 7410 ct 4300 5071 5262 3284 6522 3284 ct pc
4300 3284 m  4300 3284 l  pc
8745 11538 m  8745 11538 l  pc
0.996 c 14459 2523 m  16187 2523 17507 4833 17507 7856 ct 17507 10879 16187 13189 14459 13189 ct 
12732 13189 11412 10879 11412 7856 ct 11412 4833 12732 2523 14459 2523 ct p ef
0.000 c 14459 2523 m  16187 2523 17507 4833 17507 7856 ct 17507 10879 16187 13189 14459 13189 ct 
12732 13189 11412 10879 11412 7856 ct 11412 4833 12732 2523 14459 2523 ct pc
11412 2523 m  11412 2523 l  pc
17508 13190 m  17508 13190 l  pc
0.929 c 14713 4809 m  15217 4809 15602 5359 15602 6078 ct 15602 6798 15217 7348 14713 7348 ct 
14209 7348 13825 6798 13825 6078 ct 13825 5359 14209 4809 14713 4809 ct p ef
0.000 c 14713 4809 m  15217 4809 15602 5359 15602 6078 ct 15602 6798 15217 7348 14713 7348 ct 
14209 7348 13825 6798 13825 6078 ct 13825 5359 14209 4809 14713 4809 ct pc
13825 4809 m  13825 4809 l  pc
15603 7349 m  15603 7349 l  pc
0.929 c 14205 9252 m  14493 9252 14713 9664 14713 10204 ct 14713 10744 14493 11156 14205 11156 ct 
13918 11156 13698 10744 13698 10204 ct 13698 9664 13918 9252 14205 9252 ct p ef
0.000 c 14205 9252 m  14493 9252 14713 9664 14713 10204 ct 14713 10744 14493 11156 14205 11156 ct 
13918 11156 13698 10744 13698 10204 ct 13698 9664 13918 9252 14205 9252 ct pc
13698 9252 m  13698 9252 l  pc
14714 11157 m  14714 11157 l  pc
52 lw 6079 6333 m  6178 6316 l  ps
6242 6304 m  6341 6287 l  ps
6404 6276 m  6503 6258 l  ps
6567 6247 m  6666 6229 l  ps
6730 6218 m  6829 6201 l  ps
6893 6189 m  6992 6172 l  ps
7055 6161 m  7154 6143 l  ps
7218 6132 m  7317 6115 l  ps
7381 6103 m  7480 6086 l  ps
7544 6075 m  7642 6057 l  ps
7706 6046 m  7805 6028 l  ps
7869 6017 m  7968 6000 l  ps
8032 5988 m  8131 5971 l  ps
8194 5960 m  8293 5942 l  ps
8357 5931 m  8456 5914 l  ps
8520 5902 m  8619 5885 l  ps
8683 5874 m  8782 5856 l  ps
8845 5845 m  8944 5827 l  ps
9008 5816 m  9107 5799 l  ps
9171 5787 m  9270 5770 l  ps
9334 5759 m  9432 5741 l  ps
9496 5730 m  9595 5712 l  ps
9659 5701 m  9758 5684 l  ps
9822 5673 m  9921 5655 l  ps
9984 5644 m  10083 5626 l  ps
10147 5615 m  10246 5598 l  ps
10310 5586 m  10409 5569 l  ps
10473 5558 m  10572 5540 l  ps
10634 5529 m  10733 5511 l  ps
10797 5500 m  10896 5483 l  ps
10960 5472 m  11059 5454 l  ps
11122 5443 m  11221 5425 l  ps
11285 5414 m  11384 5397 l  ps
11448 5385 m  11547 5368 l  ps
11611 5357 m  11710 5339 l  ps
11773 5328 m  11872 5310 l  ps
11936 5299 m  12035 5282 l  ps
12099 5270 m  12198 5253 l  ps
12262 5242 m  12361 5224 l  ps
12424 5213 m  12523 5196 l  ps
12587 5184 m  12686 5167 l  ps
12750 5156 m  12849 5138 l  ps
12912 5127 m  13011 5109 l  ps
13075 5098 m  13174 5081 l  ps
13238 5069 m  13337 5052 l  ps
13401 5041 m  13500 5023 l  ps
13563 5012 m  13662 4995 l  ps
13726 4983 m  13825 4966 l  ps
13889 4955 m  13988 4937 l  ps
14052 4926 m  14150 4908 l  ps
14214 4897 m  14313 4880 l  ps
14377 4868 m  14476 4851 l  ps
14540 4840 m  14639 4822 l  ps
14702 4811 m  14714 4809 l  ps
14714 7349 m  14614 7337 l  ps
14550 7330 m  14450 7318 l  ps
14386 7310 m  14286 7299 l  ps
14222 7291 m  14122 7279 l  ps
14058 7272 m  13958 7260 l  ps
13893 7252 m  13794 7241 l  ps
13729 7233 m  13630 7221 l  ps
13565 7214 m  13465 7202 l  ps
13401 7195 m  13301 7183 l  ps
13237 7175 m  13137 7163 l  ps
13073 7156 m  12973 7144 l  ps
12909 7137 m  12809 7125 l  ps
12745 7117 m  12645 7106 l  ps
12581 7098 m  12481 7086 l  ps
12416 7079 m  12317 7067 l  ps
12252 7059 m  12153 7048 l  ps
12088 7040 m  11988 7028 l  ps
11924 7021 m  11824 7009 l  ps
11760 7001 m  11660 6990 l  ps
11596 6982 m  11496 6970 l  ps
11432 6963 m  11332 6951 l  ps
11268 6944 m  11168 6932 l  ps
11104 6924 m  11004 6913 l  ps
10940 6905 m  10840 6893 l  ps
10775 6886 m  10676 6874 l  ps
10611 6866 m  10513 6855 l  ps
10448 6847 m  10348 6835 l  ps
10284 6828 m  10184 6816 l  ps
10120 6808 m  10020 6797 l  ps
9956 6789 m  9856 6777 l  ps
9792 6770 m  9692 6758 l  ps
9628 6750 m  9528 6739 l  ps
9464 6731 m  9364 6719 l  ps
9299 6712 m  9200 6700 l  ps
9135 6693 m  9036 6681 l  ps
8971 6673 m  8871 6662 l  ps
8807 6654 m  8707 6642 l  ps
8643 6635 m  8543 6623 l  ps
8479 6615 m  8379 6604 l  ps
8315 6596 m  8215 6584 l  ps
8151 6577 m  8051 6565 l  ps
7987 6557 m  7887 6546 l  ps
7822 6538 m  7723 6526 l  ps
7658 6519 m  7559 6507 l  ps
7494 6499 m  7394 6488 l  ps
7330 6480 m  7230 6468 l  ps
7166 6461 m  7066 6449 l  ps
7002 6442 m  6902 6430 l  ps
6838 6422 m  6738 6411 l  ps
6674 6403 m  6574 6391 l  ps
6510 6384 m  6410 6372 l  ps
6345 6364 m  6246 6353 l  ps
6181 6345 m  6082 6333 l  ps
14206 11158 m  14110 11130 l  ps
14047 11112 m  13951 11084 l  ps
13889 11066 m  13792 11038 l  ps
13730 11020 m  13633 10992 l  ps
13571 10974 m  13475 10946 l  ps
13413 10928 m  13316 10900 l  ps
13254 10882 m  13157 10854 l  ps
13095 10836 m  12999 10807 l  ps
12936 10789 m  12840 10761 l  ps
12778 10743 m  12681 10715 l  ps
12619 10697 m  12523 10669 l  ps
12460 10651 m  12364 10623 l  ps
12302 10605 m  12205 10577 l  ps
12143 10559 m  12047 10531 l  ps
11984 10513 m  11888 10485 l  ps
11826 10467 m  11729 10439 l  ps
11667 10421 m  11571 10393 l  ps
11508 10375 m  11412 10347 l  ps
11350 10329 m  11253 10301 l  ps
11191 10283 m  11094 10255 l  ps
11032 10237 m  10936 10209 l  ps
10874 10191 m  10777 10163 l  ps
10715 10144 m  10618 10116 l  ps
10557 10098 m  10461 10070 l  ps
10398 10052 m  10302 10024 l  ps
10240 10006 m  10143 9978 l  ps
10081 9960 m  9985 9932 l  ps
9922 9914 m  9826 9886 l  ps
9764 9868 m  9667 9840 l  ps
9605 9822 m  9509 9794 l  ps
9446 9776 m  9350 9748 l  ps
9288 9730 m  9191 9702 l  ps
9129 9684 m  9033 9656 l  ps
8970 9638 m  8874 9610 l  ps
8812 9592 m  8715 9564 l  ps
8653 9546 m  8556 9518 l  ps
8494 9499 m  8398 9471 l  ps
8336 9453 m  8239 9425 l  ps
8177 9407 m  8080 9379 l  ps
8018 9361 m  7922 9333 l  ps
7859 9315 m  7763 9287 l  ps
7701 9269 m  7604 9241 l  ps
7542 9223 m  7446 9195 l  ps
7383 9177 m  7287 9149 l  ps
7225 9131 m  7128 9103 l  ps
7066 9085 m  6970 9057 l  ps
6907 9039 m  6811 9011 l  ps
6749 8993 m  6652 8965 l  ps
6590 8947 m  6494 8919 l  ps
6431 8901 m  6335 8873 l  ps
14206 9253 m  14106 9248 l  ps
14041 9245 m  13941 9240 l  ps
13876 9237 m  13776 9232 l  ps
13711 9229 m  13611 9224 l  ps
13546 9221 m  13445 9216 l  ps
13381 9212 m  13280 9207 l  ps
13216 9204 m  13115 9199 l  ps
13051 9196 m  12950 9191 l  ps
12886 9188 m  12785 9183 l  ps
12721 9180 m  12620 9175 l  ps
12556 9172 m  12455 9167 l  ps
12391 9164 m  12290 9159 l  ps
12226 9156 m  12125 9151 l  ps
12060 9147 m  11960 9143 l  ps
11895 9139 m  11795 9134 l  ps
11730 9131 m  11630 9126 l  ps
11565 9123 m  11465 9118 l  ps
11400 9115 m  11300 9110 l  ps
11235 9107 m  11135 9102 l  ps
11070 9099 m  10970 9094 l  ps
10905 9091 m  10805 9086 l  ps
10740 9083 m  10640 9078 l  ps
10576 9074 m  10476 9069 l  ps
10411 9066 m  10311 9061 l  ps
10246 9058 m  10146 9053 l  ps
10081 9050 m  9981 9045 l  ps
9916 9042 m  9816 9037 l  ps
9751 9034 m  9651 9029 l  ps
9586 9026 m  9486 9021 l  ps
9421 9018 m  9320 9013 l  ps
9256 9009 m  9155 9005 l  ps
9091 9001 m  8990 8996 l  ps
8926 8993 m  8825 8988 l  ps
8761 8985 m  8660 8980 l  ps
8596 8977 m  8495 8972 l  ps
8431 8969 m  8330 8964 l  ps
8266 8961 m  8165 8956 l  ps
8101 8953 m  8000 8948 l  ps
7935 8945 m  7835 8940 l  ps
7770 8936 m  7670 8932 l  ps
7605 8928 m  7505 8923 l  ps
7440 8920 m  7340 8915 l  ps
7275 8912 m  7175 8907 l  ps
7110 8904 m  7010 8899 l  ps
6945 8896 m  6845 8891 l  ps
6780 8888 m  6680 8883 l  ps
6615 8880 m  6515 8875 l  ps
gs
3413 2777 m 4747 2777 l 4747 3855 l 3413 3855 l 3413 2777 l eoclip newpath
pum
3630 3648 t
472 -605 m  677 -605 l  672 -589 l  643 -584 618 -576 596 -563 ct 575 -549 546 -523 508 -483 ct 
351 -323 l  395 -161 l  400 -145 407 -121 419 -89 ct 426 -68 433 -53 440 -45 ct 
447 -36 456 -29 467 -25 ct 478 -20 494 -17 516 -17 ct 511 0 l  274 0 l  279 -17 l 
303 -17 321 -22 332 -30 ct 340 -36 344 -44 344 -54 ct 344 -62 340 -80 332 -108 ct 
290 -261 l  148 -117 l  120 -89 104 -71 98 -62 ct 95 -56 93 -51 93 -46 ct 93 -37 98 -30 107 -24 ct 
111 -22 123 -19 145 -17 ct 140 0 l  -61 0 l  -56 -17 l  -31 -19 -10 -25 6 -34 ct 
29 -48 62 -76 103 -117 ct 279 -294 l  231 -469 l  216 -522 203 -555 193 -567 ct 
182 -580 163 -587 136 -589 ct 140 -605 l  357 -605 l  351 -589 l  331 -589 318 -587 311 -585 ct 
304 -582 298 -578 295 -573 ct 291 -568 289 -562 289 -556 ct 289 -548 293 -532 300 -506 ct 
341 -357 l  436 -451 l  474 -489 499 -519 513 -542 ct 518 -550 521 -557 521 -563 ct 
521 -570 518 -575 512 -579 ct 504 -585 489 -588 467 -589 ct p ef
pom
pum
4355 3261 t
121 -242 m  85 -120 l  119 -170 144 -203 162 -219 ct 180 -234 197 -242 213 -242 ct 
222 -242 230 -239 235 -233 ct 241 -227 244 -220 244 -210 ct 244 -200 241 -185 236 -168 ct 
204 -55 l  200 -42 198 -34 198 -31 ct 198 -29 199 -26 200 -25 ct 202 -23 203 -22 205 -22 ct 
207 -22 209 -23 212 -26 ct 222 -33 232 -45 243 -60 ct 252 -55 l  235 -31 220 -14 205 -4 ct 
194 3 185 6 177 6 ct 170 6 165 4 161 0 ct 157 -4 155 -9 155 -16 ct 155 -24 158 -39 164 -60 ct 
195 -168 l  199 -181 201 -191 201 -199 ct 201 -202 200 -205 198 -208 ct 195 -210 193 -211 189 -211 ct 
184 -211 178 -209 171 -204 ct 158 -196 144 -183 130 -165 ct 116 -146 101 -123 85 -94 ct 
76 -79 69 -62 64 -44 ct 51 0 l  10 0 l  59 -168 l  65 -188 68 -200 68 -204 ct 
68 -208 66 -211 63 -214 ct 60 -217 56 -219 51 -219 ct 49 -219 45 -218 40 -218 ct 
30 -216 l  28 -226 l  p ef
pom
gr
gs
11138 2398 m 12301 2398 l 12301 3539 l 11138 3539 l 11138 2398 l eoclip newpath
pum
11235 3340 t
320 -322 m  435 -483 l  464 -525 479 -552 479 -563 ct 479 -570 476 -575 470 -580 ct 
463 -584 445 -587 415 -589 ct 420 -605 l  610 -605 l  606 -589 l  588 -586 575 -584 568 -581 ct 
557 -577 547 -570 536 -560 ct 522 -548 502 -523 476 -486 ct 328 -282 l  283 -133 l 
272 -95 266 -69 266 -55 ct 266 -46 268 -39 272 -34 ct 275 -29 281 -25 290 -22 ct 
301 -19 318 -17 341 -17 ct 337 0 l  82 0 l  87 -17 l  113 -17 130 -19 138 -23 ct 
151 -28 161 -35 168 -44 ct 178 -58 188 -82 199 -118 ct 252 -295 l  187 -503 l 
176 -540 165 -563 156 -572 ct 146 -581 129 -587 105 -589 ct 109 -605 l  333 -605 l 
328 -589 l  300 -587 284 -585 280 -583 ct 273 -581 268 -577 264 -571 ct 260 -565 258 -557 258 -549 ct 
258 -537 262 -516 270 -486 ct p ef
pom
pum
11912 2881 t
121 -242 m  85 -120 l  119 -170 144 -203 162 -219 ct 180 -234 197 -242 213 -242 ct 
222 -242 230 -239 235 -233 ct 241 -227 244 -220 244 -210 ct 244 -200 241 -185 236 -168 ct 
204 -55 l  200 -42 198 -34 198 -31 ct 198 -29 199 -26 200 -25 ct 202 -23 203 -22 205 -22 ct 
207 -22 209 -23 212 -26 ct 222 -33 232 -45 243 -60 ct 252 -55 l  235 -31 220 -14 205 -4 ct 
194 3 185 6 177 6 ct 170 6 165 4 161 0 ct 157 -4 155 -9 155 -16 ct 155 -24 158 -39 164 -60 ct 
195 -168 l  199 -181 201 -191 201 -199 ct 201 -202 200 -205 198 -208 ct 195 -210 193 -211 189 -211 ct 
184 -211 178 -209 171 -204 ct 158 -196 144 -183 130 -165 ct 116 -146 101 -123 85 -94 ct 
76 -79 69 -62 64 -44 ct 51 0 l  10 0 l  59 -168 l  65 -188 68 -200 68 -204 ct 
68 -208 66 -211 63 -214 ct 60 -217 56 -219 51 -219 ct 49 -219 45 -218 40 -218 ct 
30 -216 l  28 -226 l  p ef
pom
gr
0 10820 t 
pom
count op_count sub {pop} repeat countdictstack dict_count sub {end} repeat b4_inc_state restore
%%PageTrailer
%%Trailer
%%EOF
