%!PS-Adobe-3.0 EPSF-3.0 
%%BoundingBox: 0 0 318 288
%%Pages: 0
%%Creator: LibreOffice 4.0
%%Title: none
%%CreationDate: none
%%LanguageLevel: 2
%%EndComments
%%BeginProlog
%%BeginResource: procset SDRes-Prolog 1.0 0
/b4_inc_state save def
/dict_count countdictstack def
/op_count count 1 sub def
userdict begin
0 setgray 0 setlinecap 1 setlinewidth 0 setlinejoin 10 setmiterlimit[] 0 setdash newpath
/languagelevel where {pop languagelevel 1 ne {false setstrokeadjust false setoverprint} if} if
/bdef {bind def} bind def
/c {setgray} bdef
/l {neg lineto} bdef
/rl {neg rlineto} bdef
/lc {setlinecap} bdef
/lj {setlinejoin} bdef
/lw {setlinewidth} bdef
/ml {setmiterlimit} bdef
/ld {setdash} bdef
/m {neg moveto} bdef
/ct {6 2 roll neg 6 2 roll neg 6 2 roll neg curveto} bdef
/r {rotate} bdef
/t {neg translate} bdef
/s {scale} bdef
/sw {show} bdef
/gs {gsave} bdef
/gr {grestore} bdef
/f {findfont dup length dict begin
{1 index /FID ne {def} {pop pop} ifelse} forall /Encoding ISOLatin1Encoding def
currentdict end /NFont exch definefont pop /NFont findfont} bdef
/p {closepath} bdef
/sf {scalefont setfont} bdef
/ef {eofill}bdef
/pc {closepath stroke}bdef
/ps {stroke}bdef
/pum {matrix currentmatrix}bdef
/pom {setmatrix}bdef
/bs {/aString exch def /nXOfs exch def /nWidth exch def currentpoint nXOfs 0 rmoveto pum nWidth aString stringwidth pop div 1 scale aString show pom moveto} bdef
%%EndResource
%%EndProlog
%%BeginSetup
%%EndSetup
%%Page: 1 1
%%BeginPageSetup
%%EndPageSetup
pum
0.02832 0.02833 s 
0 -10164 t
/tm matrix currentmatrix def
tm setmatrix
-3259 -1635 t 
1 1 s 
51 lw 1 lj 0.000 c 6840 3539 m  8856 3539 10396 5079 10396 7095 ct 10396 9111 8856 10650 6840 10650 ct 
4825 10650 3285 9111 3285 7095 ct 3285 5079 4825 3539 6840 3539 ct pc
3285 3539 m  3285 3539 l  pc
10397 10651 m  10397 10651 l  pc
10904 3539 m  12919 3539 14459 5079 14459 7095 ct 14459 9111 12919 10650 10904 10650 ct 
8888 10650 7348 9111 7348 7095 ct 7348 5079 8888 3539 10904 3539 ct pc
7348 3539 m  7348 3539 l  pc
14460 10651 m  14460 10651 l  pc
gs
7349 1635 m 10301 1635 l 10301 2481 l 7349 2481 l 7349 1635 l eoclip newpath
pum
7518 2288 t
203 -374 m  170 -259 l  383 -259 l  415 -371 l  421 -393 425 -410 425 -422 ct 
425 -428 423 -433 420 -437 ct 417 -441 413 -444 407 -446 ct 401 -448 389 -449 372 -449 ct 
375 -464 l  563 -464 l  559 -449 l  543 -449 531 -448 524 -445 ct 513 -440 504 -434 499 -427 ct 
492 -417 484 -400 476 -375 ct 394 -84 l  387 -64 383 -49 383 -40 ct 383 -32 386 -27 392 -23 ct 
399 -19 413 -16 436 -15 ct 432 0 l  253 0 l  257 -15 l  275 -15 287 -17 293 -19 ct 
302 -23 309 -29 313 -35 ct 319 -43 326 -62 335 -92 ct 376 -234 l  163 -234 l 
120 -84 l  113 -64 110 -49 110 -40 ct 110 -32 113 -27 119 -23 ct 125 -19 140 -16 162 -15 ct 
160 0 l  -21 0 l  -17 -15 l  1 -15 14 -17 19 -19 ct 29 -23 35 -29 40 -35 ct 
46 -44 53 -63 62 -92 ct 142 -370 l  148 -393 151 -410 151 -422 ct 151 -428 150 -433 147 -437 ct 
144 -441 140 -444 134 -446 ct 128 -448 116 -449 98 -449 ct 102 -464 l  287 -464 l 
283 -449 l  268 -449 256 -448 249 -445 ct 238 -440 230 -435 225 -428 ct 218 -418 211 -400 203 -374 ct 
p ef
pom
pum
8147 2288 t
195 149 m  195 166 l  104 89 59 -40 59 -220 ct 59 -402 104 -531 195 -607 ct 
195 -589 l  130 -523 98 -400 98 -220 ct 98 -38 130 85 195 149 ct p ef
pom
pum
8509 2288 t
362 -449 m  366 -464 l  521 -464 l  518 -449 l  495 -446 476 -439 459 -429 ct 
443 -420 420 -400 392 -370 ct 270 -247 l  305 -124 l  308 -112 313 -93 321 -68 ct 
326 -52 332 -42 337 -35 ct 342 -29 349 -24 358 -21 ct 366 -17 379 -15 396 -15 ct 
392 0 l  211 0 l  215 -15 l  233 -15 247 -19 255 -25 ct 261 -29 264 -35 264 -42 ct 
264 -48 261 -62 255 -83 ct 223 -200 l  114 -90 l  92 -69 80 -55 76 -48 ct 73 -44 72 -40 72 -37 ct 
72 -30 75 -25 82 -20 ct 85 -19 95 -17 111 -15 ct 108 0 l  -49 0 l  -49 -15 l 
-27 -16 -9 -21 4 -27 ct 23 -38 48 -58 81 -89 ct 215 -225 l  178 -359 l  166 -399 157 -424 148 -433 ct 
140 -443 125 -448 104 -449 ct 108 -464 l  274 -464 l  270 -449 l  254 -449 244 -448 239 -446 ct 
233 -444 229 -442 226 -438 ct 223 -434 222 -429 222 -425 ct 222 -419 225 -407 230 -387 ct 
263 -272 l  335 -346 l  364 -375 384 -398 395 -415 ct 399 -421 401 -426 401 -431 ct 
401 -436 399 -440 394 -442 ct 389 -446 378 -448 362 -449 ct p ef
pom
pum
9186 2288 t
-3 93 m  -10 82 l  9 74 24 63 35 51 ct 44 41 49 32 49 23 ct 49 19 48 15 46 12 ct 
45 10 41 6 34 0 ct 27 -6 23 -10 23 -12 ct 21 -16 20 -21 20 -26 ct 20 -36 23 -45 29 -52 ct 
35 -60 42 -63 50 -63 ct 59 -63 67 -60 73 -52 ct 80 -44 83 -34 83 -22 ct 83 -1 76 21 61 42 ct 
46 64 25 81 -3 93 ct p ef
pom
pum
9428 2288 t
209 -373 m  242 -248 l  338 -371 l  361 -402 372 -422 372 -430 ct 372 -435 370 -439 365 -442 ct 
360 -446 346 -448 323 -449 ct 326 -464 l  473 -464 l  471 -449 l  456 -447 447 -446 442 -444 ct 
433 -440 425 -435 417 -428 ct 406 -419 391 -401 370 -374 ct 244 -217 l  211 -102 l 
202 -74 198 -54 198 -44 ct 198 -37 199 -31 202 -28 ct 204 -24 209 -21 216 -19 ct 
224 -16 238 -15 256 -15 ct 252 0 l  57 0 l  61 -15 l  80 -15 93 -17 99 -19 ct 
110 -23 117 -29 122 -35 ct 130 -46 138 -64 146 -91 ct 186 -227 l  146 -386 l 
137 -413 129 -430 121 -437 ct 114 -444 101 -448 82 -449 ct 86 -464 l  257 -464 l 
253 -449 l  232 -448 220 -446 217 -445 ct 212 -444 207 -440 204 -436 ct 201 -431 199 -426 199 -420 ct 
199 -410 203 -395 209 -373 ct p ef
pom
pum
9961 2288 t
44 166 m  44 149 l  109 84 142 -39 142 -220 ct 142 -399 109 -522 44 -589 ct 
44 -607 l  94 -567 130 -508 153 -430 ct 171 -369 181 -299 181 -220 ct 181 -37 135 91 44 166 ct 
p ef
pom
gr
gs
5803 10948 m 7857 10948 l 7857 11794 l 5803 11794 l 5803 10948 l eoclip newpath
pum
5972 11601 t
203 -374 m  170 -259 l  383 -259 l  415 -371 l  421 -393 425 -410 425 -422 ct 
425 -428 423 -433 420 -437 ct 417 -441 413 -444 407 -446 ct 401 -448 389 -449 372 -449 ct 
375 -464 l  563 -464 l  559 -449 l  543 -449 531 -448 524 -445 ct 513 -440 504 -434 499 -427 ct 
492 -417 484 -400 476 -375 ct 394 -84 l  387 -64 383 -49 383 -40 ct 383 -32 386 -27 392 -23 ct 
399 -19 413 -16 436 -15 ct 432 0 l  253 0 l  257 -15 l  275 -15 287 -17 293 -19 ct 
302 -23 309 -29 313 -35 ct 319 -43 326 -62 335 -92 ct 376 -234 l  163 -234 l 
120 -84 l  113 -64 110 -49 110 -40 ct 110 -32 113 -27 119 -23 ct 125 -19 140 -16 162 -15 ct 
160 0 l  -21 0 l  -17 -15 l  1 -15 14 -17 19 -19 ct 29 -23 35 -29 40 -35 ct 
46 -44 53 -63 62 -92 ct 142 -370 l  148 -393 151 -410 151 -422 ct 151 -428 150 -433 147 -437 ct 
144 -441 140 -444 134 -446 ct 128 -448 116 -449 98 -449 ct 102 -464 l  287 -464 l 
283 -449 l  268 -449 256 -448 249 -445 ct 238 -440 230 -435 225 -428 ct 218 -418 211 -400 203 -374 ct 
p ef
pom
pum
6601 11601 t
195 149 m  195 166 l  104 89 59 -40 59 -220 ct 59 -402 104 -531 195 -607 ct 
195 -589 l  130 -523 98 -400 98 -220 ct 98 -38 130 85 195 149 ct p ef
pom
pum
6940 11601 t
362 -449 m  366 -464 l  521 -464 l  518 -449 l  495 -446 476 -439 459 -429 ct 
443 -420 420 -400 392 -370 ct 270 -247 l  305 -124 l  308 -112 313 -93 321 -68 ct 
326 -52 332 -42 337 -35 ct 342 -29 349 -24 358 -21 ct 366 -17 379 -15 396 -15 ct 
392 0 l  211 0 l  215 -15 l  233 -15 247 -19 255 -25 ct 261 -29 264 -35 264 -42 ct 
264 -48 261 -62 255 -83 ct 223 -200 l  114 -90 l  92 -69 80 -55 76 -48 ct 73 -44 72 -40 72 -37 ct 
72 -30 75 -25 82 -20 ct 85 -19 95 -17 111 -15 ct 108 0 l  -49 0 l  -49 -15 l 
-27 -16 -9 -21 4 -27 ct 23 -38 48 -58 81 -89 ct 215 -225 l  178 -359 l  166 -399 157 -424 148 -433 ct 
140 -443 125 -448 104 -449 ct 108 -464 l  274 -464 l  270 -449 l  254 -449 244 -448 239 -446 ct 
233 -444 229 -442 226 -438 ct 223 -434 222 -429 222 -425 ct 222 -419 225 -407 230 -387 ct 
263 -272 l  335 -346 l  364 -375 384 -398 395 -415 ct 399 -421 401 -426 401 -431 ct 
401 -436 399 -440 394 -442 ct 389 -446 378 -448 362 -449 ct p ef
pom
pum
7521 11601 t
44 166 m  44 149 l  109 84 142 -39 142 -220 ct 142 -399 109 -522 44 -589 ct 
44 -607 l  94 -567 130 -508 153 -430 ct 171 -369 181 -299 181 -220 ct 181 -37 135 91 44 166 ct 
p ef
pom
gr
gs
9993 10948 m 11946 10948 l 11946 11798 l 9993 11798 l 9993 10948 l eoclip newpath
pum
10162 11601 t
203 -376 m  171 -260 l  384 -260 l  417 -373 l  423 -395 426 -412 426 -424 ct 
426 -430 425 -435 422 -439 ct 419 -443 415 -446 409 -448 ct 403 -450 391 -451 374 -451 ct 
377 -466 l  566 -466 l  561 -451 l  545 -451 534 -450 526 -447 ct 515 -442 507 -436 501 -429 ct 
494 -419 486 -402 478 -376 ct 395 -85 l  388 -64 385 -49 385 -40 ct 385 -33 388 -27 394 -23 ct 
400 -19 415 -16 438 -15 ct 434 0 l  254 0 l  259 -15 l  276 -15 288 -17 294 -19 ct 
304 -23 310 -29 314 -35 ct 320 -44 328 -63 336 -92 ct 377 -235 l  163 -235 l 
121 -85 l  114 -64 111 -50 111 -40 ct 111 -33 114 -27 120 -23 ct 126 -19 140 -16 163 -15 ct 
160 0 l  -21 0 l  -17 -15 l  1 -15 14 -17 20 -19 ct 29 -23 35 -29 40 -35 ct 
46 -44 53 -63 62 -92 ct 142 -372 l  149 -394 152 -412 152 -423 ct 152 -429 151 -434 148 -439 ct 
145 -443 141 -446 134 -448 ct 128 -450 116 -451 99 -451 ct 103 -466 l  288 -466 l 
284 -451 l  269 -451 257 -450 250 -447 ct 239 -442 231 -436 226 -429 ct 219 -420 212 -402 203 -376 ct 
p ef
pom
pum
10791 11601 t
196 150 m  196 166 l  105 89 59 -40 59 -221 ct 59 -404 105 -534 196 -609 ct 
196 -592 l  131 -525 98 -402 98 -221 ct 98 -38 131 85 196 150 ct p ef
pom
pum
11057 11601 t
210 -375 m  243 -249 l  340 -372 l  363 -403 374 -423 374 -432 ct 374 -437 372 -441 367 -444 ct 
362 -447 348 -450 324 -451 ct 328 -466 l  475 -466 l  473 -451 l  458 -449 449 -447 443 -445 ct 
435 -442 427 -437 419 -430 ct 408 -421 392 -403 372 -375 ct 245 -218 l  211 -103 l 
203 -74 199 -55 199 -44 ct 199 -37 200 -32 203 -28 ct 205 -24 210 -21 217 -19 ct 
225 -16 239 -15 257 -15 ct 253 0 l  57 0 l  61 -15 l  80 -15 93 -17 100 -19 ct 
110 -23 118 -29 123 -36 ct 131 -46 139 -64 147 -91 ct 186 -228 l  146 -388 l 
137 -415 129 -432 122 -439 ct 114 -445 101 -450 83 -451 ct 86 -466 l  258 -466 l 
254 -451 l  233 -449 220 -448 217 -447 ct 212 -445 208 -442 205 -438 ct 202 -433 200 -428 200 -421 ct 
200 -412 204 -397 210 -375 ct p ef
pom
pum
11614 11601 t
44 166 m  44 150 l  109 85 142 -39 142 -221 ct 142 -401 109 -524 44 -592 ct 
44 -609 l  94 -569 131 -510 153 -432 ct 172 -370 181 -300 181 -221 ct 181 -38 136 92 44 166 ct 
p ef
pom
gr
gs
7603 6630 m 10287 6630 l 10287 7476 l 7603 7476 l 7603 6630 l eoclip newpath
pum
7772 7283 t
171 -15 m  168 0 l  -22 0 l  -17 -15 l  2 -15 15 -17 21 -19 ct 31 -23 38 -28 43 -35 ct 
51 -46 59 -64 67 -91 ct 146 -369 l  153 -392 157 -410 157 -422 ct 157 -428 155 -432 152 -437 ct 
149 -441 145 -444 139 -446 ct 133 -448 121 -449 103 -449 ct 107 -464 l  285 -464 l 
282 -449 l  267 -449 256 -448 249 -444 ct 239 -439 231 -432 226 -424 ct 220 -415 213 -395 205 -364 ct 
125 -84 l  118 -61 114 -47 114 -40 ct 114 -35 116 -31 118 -27 ct 121 -24 126 -21 132 -19 ct 
138 -17 152 -16 171 -15 ct p ef
pom
pum
8135 7283 t
195 149 m  195 166 l  104 89 59 -40 59 -220 ct 59 -402 104 -531 195 -607 ct 
195 -589 l  130 -523 98 -400 98 -220 ct 98 -38 130 85 195 149 ct p ef
pom
pum
8473 7283 t
362 -449 m  366 -464 l  521 -464 l  518 -449 l  495 -446 476 -439 459 -429 ct 
443 -420 420 -400 392 -370 ct 270 -247 l  305 -124 l  308 -112 313 -93 321 -68 ct 
326 -52 332 -42 337 -35 ct 342 -29 349 -24 358 -21 ct 366 -17 379 -15 396 -15 ct 
392 0 l  211 0 l  215 -15 l  233 -15 247 -19 255 -25 ct 261 -29 264 -35 264 -42 ct 
264 -48 261 -62 255 -83 ct 223 -200 l  114 -90 l  92 -69 80 -55 76 -48 ct 73 -44 72 -40 72 -37 ct 
72 -30 75 -25 82 -20 ct 85 -19 95 -17 111 -15 ct 108 0 l  -49 0 l  -49 -15 l 
-27 -16 -9 -21 4 -27 ct 23 -38 48 -58 81 -89 ct 215 -225 l  178 -359 l  166 -399 157 -424 148 -433 ct 
140 -443 125 -448 104 -449 ct 108 -464 l  274 -464 l  270 -449 l  254 -449 244 -448 239 -446 ct 
233 -444 229 -442 226 -438 ct 223 -434 222 -429 222 -425 ct 222 -419 225 -407 230 -387 ct 
263 -272 l  335 -346 l  364 -375 384 -398 395 -415 ct 399 -421 401 -426 401 -431 ct 
401 -436 399 -440 394 -442 ct 389 -446 378 -448 362 -449 ct p ef
pom
pum
9126 7283 t
139 -308 m  148 -308 155 -304 162 -298 ct 168 -292 171 -285 171 -276 ct 171 -267 168 -260 162 -253 ct 
155 -247 148 -244 139 -244 ct 130 -244 123 -247 117 -253 ct 111 -260 107 -267 107 -276 ct 
107 -285 110 -292 117 -298 ct 123 -304 130 -308 139 -308 ct p
15 93 m  10 81 l  36 67 53 55 59 48 ct 65 40 68 32 68 24 ct 68 20 67 15 65 12 ct 
64 10 61 6 54 0 ct 48 -6 44 -11 43 -13 ct 40 -17 39 -22 39 -27 ct 39 -36 42 -45 48 -52 ct 
55 -60 62 -63 70 -63 ct 79 -63 86 -60 93 -52 ct 99 -44 103 -34 103 -21 ct 103 -5 99 10 91 25 ct 
83 41 72 54 58 67 ct 53 71 38 80 15 93 ct p ef
pom
pum
9416 7283 t
209 -373 m  242 -248 l  338 -371 l  361 -402 372 -422 372 -430 ct 372 -435 370 -439 365 -442 ct 
360 -446 346 -448 323 -449 ct 326 -464 l  473 -464 l  471 -449 l  456 -447 447 -446 442 -444 ct 
433 -440 425 -435 417 -428 ct 406 -419 391 -401 370 -374 ct 244 -217 l  211 -102 l 
202 -74 198 -54 198 -44 ct 198 -37 199 -31 202 -28 ct 204 -24 209 -21 216 -19 ct 
224 -16 238 -15 256 -15 ct 252 0 l  57 0 l  61 -15 l  80 -15 93 -17 99 -19 ct 
110 -23 117 -29 122 -35 ct 130 -46 138 -64 146 -91 ct 186 -227 l  146 -386 l 
137 -413 129 -430 121 -437 ct 114 -444 101 -448 82 -449 ct 86 -464 l  257 -464 l 
253 -449 l  232 -448 220 -446 217 -445 ct 212 -444 207 -440 204 -436 ct 201 -431 199 -426 199 -420 ct 
199 -410 203 -395 209 -373 ct p ef
pom
pum
9948 7283 t
44 166 m  44 149 l  109 84 142 -39 142 -220 ct 142 -399 109 -522 44 -589 ct 
44 -607 l  94 -567 130 -508 153 -430 ct 171 -369 181 -299 181 -220 ct 181 -37 135 91 44 166 ct 
p ef
pom
gr
gs
3864 6630 m 6587 6630 l 6587 7476 l 3864 7476 l 3864 6630 l eoclip newpath
pum
4033 7283 t
203 -374 m  170 -259 l  383 -259 l  415 -371 l  421 -393 425 -410 425 -422 ct 
425 -428 423 -433 420 -437 ct 417 -441 413 -444 407 -446 ct 401 -448 389 -449 372 -449 ct 
375 -464 l  563 -464 l  559 -449 l  543 -449 531 -448 524 -445 ct 513 -440 504 -434 499 -427 ct 
492 -417 484 -400 476 -375 ct 394 -84 l  387 -64 383 -49 383 -40 ct 383 -32 386 -27 392 -23 ct 
399 -19 413 -16 436 -15 ct 432 0 l  253 0 l  257 -15 l  275 -15 287 -17 293 -19 ct 
302 -23 309 -29 313 -35 ct 319 -43 326 -62 335 -92 ct 376 -234 l  163 -234 l 
120 -84 l  113 -64 110 -49 110 -40 ct 110 -32 113 -27 119 -23 ct 125 -19 140 -16 162 -15 ct 
160 0 l  -21 0 l  -17 -15 l  1 -15 14 -17 19 -19 ct 29 -23 35 -29 40 -35 ct 
46 -44 53 -63 62 -92 ct 142 -370 l  148 -393 151 -410 151 -422 ct 151 -428 150 -433 147 -437 ct 
144 -441 140 -444 134 -446 ct 128 -448 116 -449 98 -449 ct 102 -464 l  287 -464 l 
283 -449 l  268 -449 256 -448 249 -445 ct 238 -440 230 -435 225 -428 ct 218 -418 211 -400 203 -374 ct 
p ef
pom
pum
4662 7283 t
195 149 m  195 166 l  104 89 59 -40 59 -220 ct 59 -402 104 -531 195 -607 ct 
195 -589 l  130 -523 98 -400 98 -220 ct 98 -38 130 85 195 149 ct p ef
pom
pum
5001 7283 t
362 -449 m  366 -464 l  521 -464 l  518 -449 l  495 -446 476 -439 459 -429 ct 
443 -420 420 -400 392 -370 ct 270 -247 l  305 -124 l  308 -112 313 -93 321 -68 ct 
326 -52 332 -42 337 -35 ct 342 -29 349 -24 358 -21 ct 366 -17 379 -15 396 -15 ct 
392 0 l  211 0 l  215 -15 l  233 -15 247 -19 255 -25 ct 261 -29 264 -35 264 -42 ct 
264 -48 261 -62 255 -83 ct 223 -200 l  114 -90 l  92 -69 80 -55 76 -48 ct 73 -44 72 -40 72 -37 ct 
72 -30 75 -25 82 -20 ct 85 -19 95 -17 111 -15 ct 108 0 l  -49 0 l  -49 -15 l 
-27 -16 -9 -21 4 -27 ct 23 -38 48 -58 81 -89 ct 215 -225 l  178 -359 l  166 -399 157 -424 148 -433 ct 
140 -443 125 -448 104 -449 ct 108 -464 l  274 -464 l  270 -449 l  254 -449 244 -448 239 -446 ct 
233 -444 229 -442 226 -438 ct 223 -434 222 -429 222 -425 ct 222 -419 225 -407 230 -387 ct 
263 -272 l  335 -346 l  364 -375 384 -398 395 -415 ct 399 -421 401 -426 401 -431 ct 
401 -436 399 -440 394 -442 ct 389 -446 378 -448 362 -449 ct p ef
pom
pum
5509 7283 t
156 151 m  122 151 l  122 -556 l  156 -556 l  156 151 l  p ef
pom
pum
5727 7283 t
209 -373 m  242 -248 l  338 -371 l  361 -402 372 -422 372 -430 ct 372 -435 370 -439 365 -442 ct 
360 -446 346 -448 323 -449 ct 326 -464 l  473 -464 l  471 -449 l  456 -447 447 -446 442 -444 ct 
433 -440 425 -435 417 -428 ct 406 -419 391 -401 370 -374 ct 244 -217 l  211 -102 l 
202 -74 198 -54 198 -44 ct 198 -37 199 -31 202 -28 ct 204 -24 209 -21 216 -19 ct 
224 -16 238 -15 256 -15 ct 252 0 l  57 0 l  61 -15 l  80 -15 93 -17 99 -19 ct 
110 -23 117 -29 122 -35 ct 130 -46 138 -64 146 -91 ct 186 -227 l  146 -386 l 
137 -413 129 -430 121 -437 ct 114 -444 101 -448 82 -449 ct 86 -464 l  257 -464 l 
253 -449 l  232 -448 220 -446 217 -445 ct 212 -444 207 -440 204 -436 ct 201 -431 199 -426 199 -420 ct 
199 -410 203 -395 209 -373 ct p ef
pom
pum
6259 7283 t
44 166 m  44 149 l  109 84 142 -39 142 -220 ct 142 -399 109 -522 44 -589 ct 
44 -607 l  94 -567 130 -508 153 -430 ct 171 -369 181 -299 181 -220 ct 181 -37 135 91 44 166 ct 
p ef
pom
gr
gs
11031 6630 m 13790 6630 l 13790 7480 l 11031 7480 l 11031 6630 l eoclip newpath
pum
11200 7283 t
203 -376 m  171 -260 l  384 -260 l  417 -373 l  423 -395 426 -412 426 -424 ct 
426 -430 425 -435 422 -439 ct 419 -443 415 -446 409 -448 ct 403 -450 391 -451 374 -451 ct 
377 -466 l  566 -466 l  561 -451 l  545 -451 534 -450 526 -447 ct 515 -442 507 -436 501 -429 ct 
494 -419 486 -402 478 -376 ct 395 -85 l  388 -64 385 -49 385 -40 ct 385 -33 388 -27 394 -23 ct 
400 -19 415 -16 438 -15 ct 434 0 l  254 0 l  259 -15 l  276 -15 288 -17 294 -19 ct 
304 -23 310 -29 314 -35 ct 320 -44 328 -63 336 -92 ct 377 -235 l  163 -235 l 
121 -85 l  114 -64 111 -50 111 -40 ct 111 -33 114 -27 120 -23 ct 126 -19 140 -16 163 -15 ct 
160 0 l  -21 0 l  -17 -15 l  1 -15 14 -17 20 -19 ct 29 -23 35 -29 40 -35 ct 
46 -44 53 -63 62 -92 ct 142 -372 l  149 -394 152 -412 152 -423 ct 152 -429 151 -434 148 -439 ct 
145 -443 141 -446 134 -448 ct 128 -450 116 -451 99 -451 ct 103 -466 l  288 -466 l 
284 -451 l  269 -451 257 -450 250 -447 ct 239 -442 231 -436 226 -429 ct 219 -420 212 -402 203 -376 ct 
p ef
pom
pum
11829 7283 t
196 150 m  196 166 l  105 89 59 -40 59 -221 ct 59 -404 105 -534 196 -609 ct 
196 -592 l  131 -525 98 -402 98 -221 ct 98 -38 131 85 196 150 ct p ef
pom
pum
12095 7283 t
210 -375 m  243 -249 l  340 -372 l  363 -403 374 -423 374 -432 ct 374 -437 372 -441 367 -444 ct 
362 -447 348 -450 324 -451 ct 328 -466 l  475 -466 l  473 -451 l  458 -449 449 -447 443 -445 ct 
435 -442 427 -437 419 -430 ct 408 -421 392 -403 372 -375 ct 245 -218 l  211 -103 l 
203 -74 199 -55 199 -44 ct 199 -37 200 -32 203 -28 ct 205 -24 210 -21 217 -19 ct 
225 -16 239 -15 257 -15 ct 253 0 l  57 0 l  61 -15 l  80 -15 93 -17 100 -19 ct 
110 -23 118 -29 123 -36 ct 131 -46 139 -64 147 -91 ct 186 -228 l  146 -388 l 
137 -415 129 -432 122 -439 ct 114 -445 101 -450 83 -451 ct 86 -466 l  258 -466 l 
254 -451 l  233 -449 220 -448 217 -447 ct 212 -445 208 -442 205 -438 ct 202 -433 200 -428 200 -421 ct 
200 -412 204 -397 210 -375 ct p ef
pom
pum
12555 7283 t
157 152 m  123 152 l  123 -558 l  157 -558 l  157 152 l  p ef
pom
pum
12869 7283 t
363 -451 m  367 -466 l  524 -466 l  520 -451 l  497 -448 478 -441 461 -431 ct 
445 -421 422 -401 393 -371 ct 271 -248 l  306 -124 l  309 -112 314 -93 322 -68 ct 
327 -53 333 -42 338 -35 ct 344 -29 351 -24 359 -21 ct 368 -17 380 -15 397 -15 ct 
394 0 l  212 0 l  216 -15 l  234 -15 248 -19 256 -25 ct 262 -29 266 -35 266 -42 ct 
266 -49 263 -62 257 -83 ct 224 -200 l  114 -90 l  93 -69 80 -55 76 -48 ct 73 -44 72 -41 72 -37 ct 
72 -30 76 -25 82 -20 ct 86 -19 95 -17 112 -15 ct 108 0 l  -49 0 l  -49 -15 l 
-27 -16 -9 -21 4 -28 ct 23 -38 48 -59 81 -89 ct 216 -226 l  178 -361 l  167 -401 157 -426 149 -435 ct 
140 -444 126 -450 105 -451 ct 108 -466 l  275 -466 l  271 -451 l  255 -451 245 -450 240 -448 ct 
234 -446 230 -443 227 -440 ct 224 -436 223 -431 223 -426 ct 223 -421 226 -409 231 -389 ct 
264 -274 l  337 -347 l  366 -376 386 -399 397 -417 ct 401 -423 402 -428 402 -433 ct 
402 -438 400 -441 396 -444 ct 390 -448 379 -450 363 -451 ct p ef
pom
pum
13450 7283 t
44 166 m  44 150 l  109 85 142 -39 142 -221 ct 142 -401 109 -524 44 -592 ct 
44 -609 l  94 -569 131 -510 153 -432 ct 172 -370 181 -300 181 -221 ct 181 -38 136 92 44 166 ct 
p ef
pom
gr
52 lw 8872 2524 m  7804 3301 l  ps
7729 3205 m  7730 3165 l  7475 3539 l  7909 3412 l  7873 3400 l  7836 3381 l 
7803 3356 l  7774 3324 l  7751 3287 l  7737 3246 l  7729 3205 l  p ef
8872 2524 m  9825 3287 l  ps
9753 3382 m  9714 3392 l  10142 3539 l  9905 3154 l  9903 3192 l  9895 3232 l 
9879 3271 l  9856 3308 l  9826 3340 l  9791 3364 l  9753 3382 l  p ef
0 10164 t 
pom
count op_count sub {pop} repeat countdictstack dict_count sub {end} repeat b4_inc_state restore
%%PageTrailer
%%Trailer
%%EOF
